ENSG00000125740
ENSG00000133055
ENSG00000110195
ENSG00000038427
ENSG00000152583
ENSG00000198336
ENSG00000259316
ENSG00000042493
ENSG00000169271
ENSG00000143217
ENSG00000124491
ENSG00000126787
ENSG00000077152
ENSG00000178999
ENSG00000139734
ENSG00000198796
ENSG00000090889
ENSG00000024526
ENSG00000153233
ENSG00000159173
ENSG00000138379
ENSG00000213190
ENSG00000272398
ENSG00000137033
ENSG00000159251
ENSG00000168078
ENSG00000128606
ENSG00000148344
ENSG00000169679
ENSG00000169607
ENSG00000122180
ENSG00000276043
ENSG00000146910
ENSG00000115221
ENSG00000156970
ENSG00000154096
ENSG00000154277
ENSG00000133985
ENSG00000130203
ENSG00000162551
ENSG00000226985
ENSG00000138180
ENSG00000145824
ENSG00000122952
ENSG00000088325
ENSG00000136153
ENSG00000109805
ENSG00000197614
ENSG00000164949
ENSG00000165480
ENSG00000272825
ENSG00000185559
ENSG00000260027
ENSG00000112984
ENSG00000164176
ENSG00000118194
ENSG00000108515
ENSG00000170312
ENSG00000166148
ENSG00000167900
ENSG00000165891
ENSG00000114854
ENSG00000139329
ENSG00000112742
ENSG00000187210
ENSG00000111665
ENSG00000163814
ENSG00000261786
ENSG00000170681
ENSG00000149090
ENSG00000129152
ENSG00000011426
ENSG00000091513
ENSG00000179750
ENSG00000091482
ENSG00000113083
ENSG00000123485
ENSG00000170571
ENSG00000132003
ENSG00000143228
ENSG00000131747
ENSG00000171848
ENSG00000183856
ENSG00000197415
ENSG00000129173
ENSG00000080493
ENSG00000117724
ENSG00000136542
ENSG00000137807
ENSG00000166803
ENSG00000166317
ENSG00000171241
ENSG00000180209
ENSG00000170345
ENSG00000134917
ENSG00000214456
ENSG00000122862
ENSG00000227877
ENSG00000115592
ENSG00000128271
ENSG00000125414
ENSG00000128944
ENSG00000066279
ENSG00000225613
ENSG00000138771
ENSG00000196616
ENSG00000164761
ENSG00000172927
ENSG00000119686
ENSG00000121211
ENSG00000133083
ENSG00000092054
ENSG00000214814
ENSG00000060718
ENSG00000137573
ENSG00000172995
ENSG00000139278
ENSG00000283128
ENSG00000167306
ENSG00000177243
ENSG00000143369
ENSG00000134690
ENSG00000172399
ENSG00000143476
ENSG00000155816
ENSG00000254586
ENSG00000176788
ENSG00000130208
ENSG00000007237
ENSG00000121769
ENSG00000157542
ENSG00000113396
ENSG00000174371
ENSG00000170558
ENSG00000137812
ENSG00000183671
ENSG00000168621
ENSG00000111245
ENSG00000204542
ENSG00000166851
ENSG00000146386
ENSG00000215853
ENSG00000242715
ENSG00000196465
ENSG00000267279
ENSG00000186340
ENSG00000136546
ENSG00000137819
ENSG00000188985
ENSG00000138347
ENSG00000134716
ENSG00000065328
ENSG00000162599
ENSG00000158402
ENSG00000104804
ENSG00000127329
ENSG00000077009
ENSG00000122877
ENSG00000124743
ENSG00000187616
ENSG00000135451
ENSG00000025708
ENSG00000167767
ENSG00000180914
ENSG00000109061
ENSG00000162804
ENSG00000211896
ENSG00000163808
ENSG00000283162
ENSG00000263873
ENSG00000267257
ENSG00000108825
ENSG00000168530
ENSG00000276851
ENSG00000182667
ENSG00000197191
ENSG00000138670
ENSG00000067715
ENSG00000168743
ENSG00000154027
ENSG00000112183
ENSG00000178031
ENSG00000105251
ENSG00000280435
ENSG00000133101
ENSG00000169583
ENSG00000048052
ENSG00000182261
ENSG00000234703
ENSG00000129810
ENSG00000141161
ENSG00000136108
ENSG00000216921
ENSG00000100162
ENSG00000094804
ENSG00000142494
ENSG00000142669
ENSG00000150556
ENSG00000175315
ENSG00000132688
ENSG00000004799
ENSG00000004948
ENSG00000121152
ENSG00000214114
ENSG00000131015
ENSG00000097021
ENSG00000164087
ENSG00000147576
ENSG00000271361
ENSG00000165304
ENSG00000138944
ENSG00000198331
ENSG00000127564
ENSG00000175773
ENSG00000105048
ENSG00000247134
ENSG00000100526
ENSG00000064042
ENSG00000054938
ENSG00000163380
ENSG00000280079
ENSG00000165410
ENSG00000176907
ENSG00000204136
ENSG00000189058
ENSG00000114251
ENSG00000237819
ENSG00000158869
ENSG00000175567
ENSG00000130518
ENSG00000166396
ENSG00000172508
ENSG00000091972
ENSG00000154493
ENSG00000258498
ENSG00000171320
ENSG00000143631
ENSG00000138092
ENSG00000152518
ENSG00000064195
ENSG00000143512
ENSG00000134057
ENSG00000228716
ENSG00000127951
ENSG00000228013
ENSG00000166033
ENSG00000187720
ENSG00000183287
ENSG00000241458
ENSG00000233117
ENSG00000139209
ENSG00000188549
ENSG00000226403
ENSG00000153904
ENSG00000068489
ENSG00000006606
ENSG00000080986
ENSG00000234290
ENSG00000157613
ENSG00000197943
ENSG00000198826
ENSG00000176890
ENSG00000154080
ENSG00000205929
ENSG00000157103
ENSG00000168334
ENSG00000159348
ENSG00000167191
ENSG00000109861
ENSG00000257219
ENSG00000168672
ENSG00000109919
ENSG00000089685
ENSG00000146648
ENSG00000244953
ENSG00000128340
ENSG00000236333
ENSG00000072571
ENSG00000117308
ENSG00000115598
ENSG00000131459
ENSG00000093009
ENSG00000196460
ENSG00000270112
ENSG00000181019
ENSG00000152422
ENSG00000109906
ENSG00000183873
ENSG00000272622
ENSG00000231924
ENSG00000056998
ENSG00000227039
ENSG00000115593
ENSG00000162614
ENSG00000285155
ENSG00000107984
ENSG00000197555
ENSG00000168925
ENSG00000137142
ENSG00000185022
ENSG00000008394
ENSG00000163485
ENSG00000115514
ENSG00000213145
ENSG00000117586
ENSG00000203799
ENSG00000158164
ENSG00000106819
ENSG00000164109
ENSG00000205221
ENSG00000144908
ENSG00000157456
ENSG00000132510
ENSG00000205683
ENSG00000145386
ENSG00000101333
ENSG00000262179
ENSG00000064309
ENSG00000185269
ENSG00000081189
ENSG00000120075
ENSG00000078098
ENSG00000089327
ENSG00000108511
ENSG00000126785
ENSG00000114850
ENSG00000111247
ENSG00000180999
ENSG00000198682
ENSG00000158186
ENSG00000146670
ENSG00000238061
ENSG00000117650
ENSG00000186439
ENSG00000109674
ENSG00000101003
ENSG00000257859
ENSG00000280046
ENSG00000268518
ENSG00000112394
ENSG00000162105
ENSG00000147166
ENSG00000230417
ENSG00000179604
ENSG00000184588
ENSG00000106034
ENSG00000157557
ENSG00000276527
ENSG00000214548
ENSG00000267784
ENSG00000129422
ENSG00000196136
ENSG00000147852
ENSG00000215218
ENSG00000142661
ENSG00000171792
ENSG00000181381
ENSG00000163739
ENSG00000159167
ENSG00000165795
ENSG00000187908
ENSG00000064205
ENSG00000136826
ENSG00000199080
ENSG00000282057
ENSG00000272540
ENSG00000144278
ENSG00000198901
ENSG00000231345
ENSG00000239218
ENSG00000170891
ENSG00000130032
ENSG00000035499
ENSG00000166165
ENSG00000011677
ENSG00000258754
ENSG00000151725
ENSG00000117479
ENSG00000169242
ENSG00000254680
ENSG00000125845
ENSG00000198523
ENSG00000143632
ENSG00000203685
ENSG00000205562
ENSG00000137642
ENSG00000118515
ENSG00000064787
ENSG00000099194
ENSG00000106992
ENSG00000120669
ENSG00000148677
ENSG00000204291
ENSG00000171223
ENSG00000154258
ENSG00000138650
ENSG00000229647
ENSG00000164692
ENSG00000142945
ENSG00000079462
ENSG00000243964
ENSG00000248596
ENSG00000271524
ENSG00000092853
ENSG00000250303
ENSG00000233541
ENSG00000255624
ENSG00000255650
ENSG00000171428
ENSG00000132932
ENSG00000164694
ENSG00000138160
ENSG00000140285
ENSG00000138758
ENSG00000198736
ENSG00000279283
ENSG00000100196
ENSG00000102384
ENSG00000168938
ENSG00000112186
ENSG00000171840
ENSG00000164879
ENSG00000175294
ENSG00000174407
ENSG00000179796
ENSG00000132975
ENSG00000138395
ENSG00000203760
ENSG00000131475
ENSG00000196230
ENSG00000109819
ENSG00000162520
ENSG00000085840
ENSG00000185480
ENSG00000140416
ENSG00000131944
ENSG00000145287
ENSG00000275874
ENSG00000179222
ENSG00000109047
ENSG00000261026
ENSG00000152253
ENSG00000100739
ENSG00000064666
ENSG00000130772
ENSG00000064490
ENSG00000239503
ENSG00000271579
ENSG00000248008
ENSG00000131462
ENSG00000135437
ENSG00000165125
ENSG00000106013
ENSG00000175785
ENSG00000178033
ENSG00000269145
ENSG00000074590
ENSG00000223403
ENSG00000279118
ENSG00000005339
ENSG00000130429
ENSG00000165029
ENSG00000205542
ENSG00000100890
ENSG00000145247
ENSG00000170271
ENSG00000102683
ENSG00000091831
ENSG00000157111
ENSG00000259820
ENSG00000153234
ENSG00000224287
ENSG00000165490
ENSG00000128683
ENSG00000047617
ENSG00000069702
ENSG00000120738
ENSG00000160712
ENSG00000261039
ENSG00000112796
ENSG00000113070
ENSG00000181104
ENSG00000111913
ENSG00000179133
ENSG00000224916
ENSG00000177098
ENSG00000185088
ENSG00000160097
ENSG00000155324
ENSG00000104047
ENSG00000144354
ENSG00000160255
ENSG00000223478
ENSG00000244641
ENSG00000128016
ENSG00000258818
ENSG00000188536
ENSG00000165609
ENSG00000118193
ENSG00000120129
ENSG00000123219
ENSG00000138772
ENSG00000103522
ENSG00000175161
ENSG00000189057
ENSG00000134516
ENSG00000186960
ENSG00000178980
ENSG00000238933
ENSG00000258691
ENSG00000197971
ENSG00000230387
ENSG00000273541
ENSG00000068438
ENSG00000177108
ENSG00000131471
ENSG00000161800
ENSG00000146477
ENSG00000077782
ENSG00000122585
ENSG00000235162
ENSG00000285723
ENSG00000182533
ENSG00000104267
ENSG00000163590
ENSG00000120885
ENSG00000086619
ENSG00000142173
ENSG00000124440
ENSG00000142731
ENSG00000182628
ENSG00000229807
ENSG00000101928
ENSG00000168291
ENSG00000243509
ENSG00000051180
ENSG00000143942
ENSG00000224259
ENSG00000197406
ENSG00000169504
ENSG00000138778
ENSG00000229720
ENSG00000160224
ENSG00000198576
ENSG00000164626
ENSG00000239519
ENSG00000187513
ENSG00000196811
ENSG00000100906
ENSG00000232774
ENSG00000145604
ENSG00000263179
ENSG00000126860
ENSG00000258964
ENSG00000117155
ENSG00000205018
ENSG00000237649
ENSG00000164776
ENSG00000226746
ENSG00000121966
ENSG00000224114
ENSG00000214855
ENSG00000105227
ENSG00000135318
ENSG00000243137
ENSG00000243317
ENSG00000115085
ENSG00000144339
ENSG00000007171
ENSG00000154864
ENSG00000090006
ENSG00000253915
ENSG00000279493
ENSG00000184357
ENSG00000076382
ENSG00000225746
ENSG00000188266
ENSG00000143768
ENSG00000059728
ENSG00000159399
ENSG00000140557
ENSG00000139211
ENSG00000173334
ENSG00000204381
ENSG00000221890
ENSG00000236719
ENSG00000236819
ENSG00000178796
ENSG00000205413
ENSG00000071539
ENSG00000179057
ENSG00000076554
ENSG00000128567
ENSG00000269821
ENSG00000100554
ENSG00000284879
ENSG00000118894
ENSG00000279981
ENSG00000159166
ENSG00000103888
ENSG00000146592
ENSG00000198648
ENSG00000256940
ENSG00000121690
ENSG00000161381
ENSG00000119508
ENSG00000282012
ENSG00000172159
ENSG00000148773
ENSG00000128595
ENSG00000197177
ENSG00000118640
ENSG00000197472
ENSG00000243167
ENSG00000119681
ENSG00000168899
ENSG00000142973
ENSG00000152137
ENSG00000205336
ENSG00000122861
ENSG00000139112
ENSG00000167196
ENSG00000068615
ENSG00000131100
ENSG00000184937
ENSG00000087589
ENSG00000272899
ENSG00000154217
ENSG00000108018
ENSG00000092850
ENSG00000185070
ENSG00000203722
ENSG00000157765
ENSG00000050405
ENSG00000117707
ENSG00000271334
ENSG00000163918
ENSG00000143847
ENSG00000110880
ENSG00000131016
ENSG00000006451
ENSG00000042062
ENSG00000280087
ENSG00000136068
ENSG00000029993
ENSG00000273162
ENSG00000221869
ENSG00000108813
ENSG00000008517
ENSG00000173868
ENSG00000133678
ENSG00000155868
ENSG00000226329
ENSG00000233186
ENSG00000258730
ENSG00000167157
ENSG00000130595
ENSG00000187123
ENSG00000265415
ENSG00000155657
ENSG00000155966
ENSG00000185630
ENSG00000224857
ENSG00000279608
ENSG00000185291
ENSG00000185962
ENSG00000232053
ENSG00000133639
ENSG00000250320
ENSG00000236230
ENSG00000186150
ENSG00000108878
ENSG00000165072
ENSG00000130347
ENSG00000133216
ENSG00000141198
ENSG00000182175
ENSG00000234906
ENSG00000140525
ENSG00000203812
ENSG00000129354
ENSG00000128408
ENSG00000170893
ENSG00000157827
ENSG00000198838
ENSG00000182180
ENSG00000138615
ENSG00000272668
ENSG00000111196
ENSG00000065833
ENSG00000106853
ENSG00000167371
ENSG00000117643
ENSG00000279985
ENSG00000089692
ENSG00000176945
ENSG00000136824
ENSG00000254226
ENSG00000196420
ENSG00000131620
ENSG00000258225
ENSG00000109511
ENSG00000258476
ENSG00000127241
ENSG00000144655
ENSG00000163507
ENSG00000153922
ENSG00000215861
ENSG00000139998
ENSG00000224420
ENSG00000100097
ENSG00000132005
ENSG00000236197
ENSG00000186868
ENSG00000073969
ENSG00000198535
ENSG00000279796
ENSG00000107105
ENSG00000129244
ENSG00000138346
ENSG00000179094
ENSG00000094841
ENSG00000103381
ENSG00000162073
ENSG00000218336
ENSG00000166482
ENSG00000189052
ENSG00000184635
ENSG00000257591
ENSG00000228510
ENSG00000132359
ENSG00000254986
ENSG00000160752
ENSG00000258906
ENSG00000088340
ENSG00000163520
ENSG00000111602
ENSG00000214517
ENSG00000018510
ENSG00000129009
ENSG00000158125
ENSG00000102804
ENSG00000146918
ENSG00000119888
ENSG00000094963
ENSG00000240023
ENSG00000087586
ENSG00000198106
ENSG00000197993
ENSG00000039560
ENSG00000162881
ENSG00000240211
ENSG00000171885
ENSG00000179299
ENSG00000101608
ENSG00000122477
ENSG00000175063
ENSG00000172799
ENSG00000113578
ENSG00000253295
ENSG00000230090
ENSG00000049883
ENSG00000119013
ENSG00000129474
ENSG00000285909
ENSG00000163430
ENSG00000101955
ENSG00000165409
ENSG00000217653
ENSG00000154265
ENSG00000040275
ENSG00000264754
ENSG00000131737
ENSG00000214194
ENSG00000114405
ENSG00000196290
ENSG00000172000
ENSG00000189367
ENSG00000115290
ENSG00000052802
ENSG00000281021
ENSG00000156222
ENSG00000197329
ENSG00000132313
ENSG00000133020
ENSG00000149150
ENSG00000217416
ENSG00000170624
ENSG00000158019
ENSG00000160271
ENSG00000007944
ENSG00000109881
ENSG00000132334
ENSG00000078401
ENSG00000285879
ENSG00000172602
ENSG00000104808
ENSG00000154548
ENSG00000259529
ENSG00000225867
ENSG00000078725
ENSG00000108384
ENSG00000136783
ENSG00000257849
ENSG00000143549
ENSG00000070081
ENSG00000126067
ENSG00000229278
ENSG00000254560
ENSG00000170017
ENSG00000250069
ENSG00000197275
ENSG00000227048
ENSG00000261560
ENSG00000125355
ENSG00000100865
ENSG00000182010
ENSG00000196549
ENSG00000095002
ENSG00000121310
ENSG00000167264
ENSG00000147145
ENSG00000249992
ENSG00000196189
ENSG00000240270
ENSG00000162062
ENSG00000163492
ENSG00000266378
ENSG00000123416
ENSG00000163092
ENSG00000174485
ENSG00000177803
ENSG00000161888
ENSG00000144583
ENSG00000150907
ENSG00000153823
ENSG00000086712
ENSG00000010292
ENSG00000243904
ENSG00000124813
ENSG00000197635
ENSG00000067225
ENSG00000162772
ENSG00000242615
ENSG00000279193
ENSG00000256500
ENSG00000174442
ENSG00000141338
ENSG00000167552
ENSG00000023697
ENSG00000170043
ENSG00000226647
ENSG00000262621
ENSG00000198053
ENSG00000083454
ENSG00000235902
ENSG00000162063
ENSG00000279353
ENSG00000059691
ENSG00000130303
ENSG00000164344
ENSG00000285888
ENSG00000275113
ENSG00000182324
ENSG00000164112
ENSG00000113790
ENSG00000160888
ENSG00000146678
ENSG00000143167
ENSG00000158528
ENSG00000138794
ENSG00000101463
ENSG00000183023
ENSG00000169188
ENSG00000176490
ENSG00000124212
ENSG00000165996
ENSG00000229563
ENSG00000265303
ENSG00000235098
ENSG00000234009
ENSG00000103018
ENSG00000157404
ENSG00000180747
ENSG00000101638
ENSG00000106392
ENSG00000239282
ENSG00000081052
ENSG00000139410
ENSG00000133805
ENSG00000134198
ENSG00000260296
ENSG00000169981
ENSG00000123473
ENSG00000164007
ENSG00000261040
ENSG00000182199
ENSG00000149564
ENSG00000122778
ENSG00000105357
ENSG00000255201
ENSG00000162368
ENSG00000070882
ENSG00000166106
ENSG00000224647
ENSG00000049540
ENSG00000153048
ENSG00000109452
ENSG00000121621
ENSG00000103489
ENSG00000252764
ENSG00000107819
ENSG00000165030
ENSG00000259827
ENSG00000095203
ENSG00000228157
ENSG00000225614
ENSG00000162892
ENSG00000114573
ENSG00000124126
ENSG00000020633
ENSG00000128656
ENSG00000058056
ENSG00000111481
ENSG00000279945
ENSG00000164733
ENSG00000170542
ENSG00000120509
ENSG00000104723
ENSG00000204103
ENSG00000175920
ENSG00000269416
ENSG00000130066
ENSG00000259384
ENSG00000284740
ENSG00000139174
ENSG00000140950
ENSG00000149591
ENSG00000169876
ENSG00000174010
ENSG00000179300
ENSG00000203805
ENSG00000049239
ENSG00000162998
ENSG00000224959
ENSG00000173210
ENSG00000111206
ENSG00000136997
ENSG00000186204
ENSG00000104879
ENSG00000137124
ENSG00000240344
ENSG00000148357
ENSG00000105971
ENSG00000198019
ENSG00000141552
ENSG00000250986
ENSG00000079215
ENSG00000165868
ENSG00000186638
ENSG00000123610
ENSG00000167037
ENSG00000233029
ENSG00000120437
ENSG00000283235
ENSG00000197299
ENSG00000177822
ENSG00000189238
ENSG00000129195
ENSG00000196981
ENSG00000204941
ENSG00000173269
ENSG00000261103
ENSG00000221926
ENSG00000248909
ENSG00000047936
ENSG00000075223
ENSG00000142657
ENSG00000153487
ENSG00000111229
ENSG00000129235
ENSG00000077943
ENSG00000231305
ENSG00000162496
ENSG00000279690
ENSG00000153162
ENSG00000006757
ENSG00000197061
ENSG00000162144
ENSG00000241351
ENSG00000163156
ENSG00000259924
ENSG00000169139
ENSG00000204147
ENSG00000235750
ENSG00000163449
ENSG00000223749
ENSG00000162390
ENSG00000016402
ENSG00000184349
ENSG00000185885
ENSG00000172403
ENSG00000182957
ENSG00000258279
ENSG00000105792
ENSG00000001084
ENSG00000163923
ENSG00000174775
ENSG00000241280
ENSG00000250461
ENSG00000178401
ENSG00000233538
ENSG00000145817
ENSG00000167874
ENSG00000203786
ENSG00000134243
ENSG00000229414
ENSG00000216490
ENSG00000112079
ENSG00000166073
ENSG00000231721
ENSG00000103196
ENSG00000146476
ENSG00000164294
ENSG00000180875
ENSG00000198960
ENSG00000275185
ENSG00000229456
ENSG00000162894
ENSG00000099250
ENSG00000150990
ENSG00000251349
ENSG00000223850
ENSG00000141574
ENSG00000232259
ENSG00000037241
ENSG00000125813
ENSG00000005379
ENSG00000167487
ENSG00000243955
ENSG00000134779
ENSG00000279568
ENSG00000104889
ENSG00000118680
ENSG00000230047
ENSG00000248587
ENSG00000091409
ENSG00000203711
ENSG00000168528
ENSG00000169057
ENSG00000236383
ENSG00000174038
ENSG00000083457
ENSG00000231625
ENSG00000214688
ENSG00000166405
ENSG00000255408
ENSG00000272589
ENSG00000181610
ENSG00000187764
ENSG00000205044
ENSG00000133313
ENSG00000115828
ENSG00000213386
ENSG00000029153
ENSG00000129116
ENSG00000253414
ENSG00000272506
ENSG00000165973
ENSG00000156510
ENSG00000177156
ENSG00000109436
ENSG00000126264
ENSG00000106772
ENSG00000227523
ENSG00000064199
ENSG00000267316
ENSG00000247095
ENSG00000173950
ENSG00000241685
ENSG00000072682
ENSG00000233668
ENSG00000157764
ENSG00000131153
ENSG00000149294
ENSG00000105650
ENSG00000072110
ENSG00000116990
ENSG00000142621
ENSG00000219163
ENSG00000106511
ENSG00000172738
ENSG00000197989
ENSG00000129055
ENSG00000258017
ENSG00000173276
ENSG00000271204
ENSG00000107719
ENSG00000107745
ENSG00000115762
ENSG00000168610
ENSG00000172500
ENSG00000250644
ENSG00000237846
ENSG00000132561
ENSG00000285525
ENSG00000144554
ENSG00000175274
ENSG00000230832
ENSG00000088808
ENSG00000187778
ENSG00000160326
ENSG00000126561
ENSG00000172586
ENSG00000175182
ENSG00000262966
ENSG00000159289
ENSG00000049323
ENSG00000168894
ENSG00000060140
ENSG00000285850
ENSG00000279390
ENSG00000139985
ENSG00000260342
ENSG00000151623
ENSG00000102144
ENSG00000136937
ENSG00000198842
ENSG00000214274
ENSG00000123358
ENSG00000129467
ENSG00000101057
ENSG00000105835
ENSG00000264772
ENSG00000164303
ENSG00000138182
ENSG00000157036
ENSG00000240801
ENSG00000090975
ENSG00000054967
ENSG00000110063
ENSG00000147536
ENSG00000259367
ENSG00000279652
ENSG00000165501
ENSG00000249669
ENSG00000104611
ENSG00000087053
ENSG00000123353
ENSG00000227379
ENSG00000021645
ENSG00000178996
ENSG00000138119
ENSG00000114054
ENSG00000050165
ENSG00000070961
ENSG00000162512
ENSG00000112312
ENSG00000244215
ENSG00000196296
ENSG00000172183
ENSG00000103415
ENSG00000057657
ENSG00000108039
ENSG00000237296
ENSG00000124479
ENSG00000179583
ENSG00000254708
ENSG00000263050
ENSG00000146674
ENSG00000173825
ENSG00000143105
ENSG00000237158
ENSG00000156802
ENSG00000137809
ENSG00000163832
ENSG00000172794
ENSG00000111640
ENSG00000162631
ENSG00000135111
ENSG00000013588
ENSG00000082397
ENSG00000255639
ENSG00000166963
ENSG00000189159
ENSG00000237651
ENSG00000277443
ENSG00000186594
ENSG00000180287
ENSG00000108551
ENSG00000118495
ENSG00000134569
ENSG00000197405
ENSG00000242853
ENSG00000258948
ENSG00000090539
ENSG00000232528
ENSG00000124701
ENSG00000017427
ENSG00000100889
ENSG00000240695
ENSG00000243696
ENSG00000266079
ENSG00000153902
ENSG00000283897
ENSG00000261429
ENSG00000242114
ENSG00000139597
ENSG00000177556
ENSG00000006042
ENSG00000151364
ENSG00000215915
ENSG00000232392
ENSG00000158292
ENSG00000170454
ENSG00000274267
ENSG00000110442
ENSG00000170458
ENSG00000120708
ENSG00000218073
ENSG00000156253
ENSG00000174695
ENSG00000230280
ENSG00000077380
ENSG00000100024
ENSG00000183807
ENSG00000041357
ENSG00000223896
ENSG00000267374
ENSG00000163634
ENSG00000185847
ENSG00000273664
ENSG00000227064
ENSG00000131711
ENSG00000165186
ENSG00000112414
ENSG00000178607
ENSG00000258831
ENSG00000225434
ENSG00000161203
ENSG00000197616
ENSG00000231105
ENSG00000113594
ENSG00000249779
ENSG00000277481
ENSG00000094796
ENSG00000172164
ENSG00000250325
ENSG00000198554
ENSG00000104738
ENSG00000105750
ENSG00000285769
ENSG00000204592
ENSG00000120088
ENSG00000023608
ENSG00000102287
ENSG00000269220
ENSG00000276122
ENSG00000069667
ENSG00000268218
ENSG00000091986
ENSG00000110871
ENSG00000170190
ENSG00000271081
ENSG00000258586
ENSG00000143870
ENSG00000091140
ENSG00000135698
ENSG00000169047
ENSG00000163914
ENSG00000215375
ENSG00000205362
ENSG00000173805
ENSG00000274423
ENSG00000234281
ENSG00000170827
ENSG00000258183
ENSG00000139549
ENSG00000179038
ENSG00000102786
ENSG00000111639
ENSG00000175600
ENSG00000122687
ENSG00000144744
ENSG00000185710
ENSG00000144366
ENSG00000279809
ENSG00000138356
ENSG00000256399
ENSG00000117594
ENSG00000168079
ENSG00000145681
ENSG00000233067
ENSG00000076242
ENSG00000134256
ENSG00000173366
ENSG00000137804
ENSG00000015520
ENSG00000111252
ENSG00000170054
ENSG00000180525
ENSG00000259370
ENSG00000103550
ENSG00000232119
ENSG00000105974
ENSG00000164011
ENSG00000196993
ENSG00000164729
ENSG00000164404
ENSG00000260804
ENSG00000164708
ENSG00000135636
ENSG00000103966
ENSG00000249249
ENSG00000205426
ENSG00000155886
ENSG00000273218
ENSG00000285958
ENSG00000159720
ENSG00000167703
ENSG00000253174
ENSG00000062524
ENSG00000103769
ENSG00000263528
ENSG00000152804
ENSG00000148925
ENSG00000105656
ENSG00000184384
ENSG00000154262
ENSG00000150687
ENSG00000282863
ENSG00000142230
ENSG00000159516
ENSG00000143365
ENSG00000237659
ENSG00000076356
ENSG00000112992
ENSG00000253658
ENSG00000236546
ENSG00000109063
ENSG00000149925
ENSG00000156049
ENSG00000165140
ENSG00000248144
ENSG00000255780
ENSG00000183281
ENSG00000235121
ENSG00000248441
ENSG00000181722
ENSG00000248964
ENSG00000254721
ENSG00000272574
ENSG00000246430
ENSG00000179242
ENSG00000197798
ENSG00000113296
ENSG00000159212
ENSG00000200612
ENSG00000099960
ENSG00000260672
ENSG00000116132
ENSG00000164683
ENSG00000116586
ENSG00000138030
ENSG00000140279
ENSG00000118961
ENSG00000070087
ENSG00000283156
ENSG00000136490
ENSG00000237848
ENSG00000108691
ENSG00000081248
ENSG00000151465
ENSG00000100060
ENSG00000187905
ENSG00000147573
ENSG00000153291
ENSG00000187634
ENSG00000271936
ENSG00000117305
ENSG00000271811
ENSG00000258285
ENSG00000116133
ENSG00000197077
ENSG00000213977
ENSG00000204314
ENSG00000169019
ENSG00000113732
ENSG00000164930
ENSG00000147592
ENSG00000132646
ENSG00000113643
ENSG00000147257
ENSG00000248869
ENSG00000141316
ENSG00000177700
ENSG00000213719
ENSG00000172339
ENSG00000171174
ENSG00000149043
ENSG00000236882
ENSG00000130940
ENSG00000184254
ENSG00000165061
ENSG00000075188
ENSG00000120693
ENSG00000121900
ENSG00000180730
ENSG00000109929
ENSG00000229927
ENSG00000166797
ENSG00000236364
ENSG00000271977
ENSG00000168032
ENSG00000278766
ENSG00000136628
ENSG00000175216
ENSG00000184895
ENSG00000227158
ENSG00000285801
ENSG00000279674
ENSG00000237986
ENSG00000165494
ENSG00000119403
ENSG00000237807
ENSG00000106948
ENSG00000173641
ENSG00000030110
ENSG00000187994
ENSG00000130844
ENSG00000120053
ENSG00000196923
ENSG00000261662
ENSG00000198910
ENSG00000119661
ENSG00000170323
ENSG00000182022
ENSG00000187492
ENSG00000261554
ENSG00000237803
ENSG00000234155
ENSG00000147155
ENSG00000249021
ENSG00000161010
ENSG00000055147
ENSG00000172548
ENSG00000204634
ENSG00000003249
ENSG00000166839
ENSG00000157538
ENSG00000170743
ENSG00000279428
ENSG00000197043
ENSG00000173207
ENSG00000224346
ENSG00000183780
ENSG00000174373
ENSG00000137198
ENSG00000258752
ENSG00000145979
ENSG00000165995
ENSG00000234264
ENSG00000279633
ENSG00000110046
ENSG00000183250
ENSG00000042088
ENSG00000166483
ENSG00000262943
ENSG00000197747
ENSG00000204767
ENSG00000231953
ENSG00000124116
ENSG00000156531
ENSG00000144668
ENSG00000184009
ENSG00000259583
ENSG00000090263
ENSG00000069509
ENSG00000140090
ENSG00000117592
ENSG00000136720
ENSG00000158483
ENSG00000201689
ENSG00000234841
ENSG00000006210
ENSG00000090861
ENSG00000054598
ENSG00000137309
ENSG00000146425
ENSG00000162521
ENSG00000223810
ENSG00000143622
ENSG00000108821
ENSG00000244734
ENSG00000106268
ENSG00000197702
ENSG00000127884
ENSG00000171084
ENSG00000256195
ENSG00000139719
ENSG00000186300
ENSG00000087008
ENSG00000273167
ENSG00000107736
ENSG00000162069
ENSG00000248155
ENSG00000111728
ENSG00000196091
ENSG00000181991
ENSG00000184160
ENSG00000183508
ENSG00000241942
ENSG00000101150
ENSG00000165916
ENSG00000139618
ENSG00000096433
ENSG00000233559
ENSG00000145819
ENSG00000146966
ENSG00000153767
ENSG00000196118
ENSG00000259198
ENSG00000164885
ENSG00000162882
ENSG00000254710
ENSG00000117399
ENSG00000176261
ENSG00000142182
ENSG00000006128
ENSG00000180448
ENSG00000102743
ENSG00000183239
ENSG00000184838
ENSG00000157168
ENSG00000205517
ENSG00000229153
ENSG00000113312
ENSG00000214465
ENSG00000100918
ENSG00000138430
ENSG00000224232
ENSG00000271699
ENSG00000115685
ENSG00000243280
ENSG00000258749
ENSG00000279319
ENSG00000076706
ENSG00000186897
ENSG00000186998
ENSG00000149131
ENSG00000148840
ENSG00000065308
ENSG00000278891
ENSG00000128917
ENSG00000170262
ENSG00000261553
ENSG00000115602
ENSG00000117834
ENSG00000205352
ENSG00000169635
ENSG00000272173
ENSG00000200597
ENSG00000280073
ENSG00000272121
ENSG00000101843
ENSG00000154122
ENSG00000186026
ENSG00000232743
ENSG00000166260
ENSG00000167920
ENSG00000105202
ENSG00000164743
ENSG00000105568
ENSG00000107742
ENSG00000198856
ENSG00000120539
ENSG00000221818
ENSG00000198001
ENSG00000279753
ENSG00000278909
ENSG00000113812
ENSG00000140945
ENSG00000096717
ENSG00000105641
ENSG00000183763
ENSG00000077984
ENSG00000117425
ENSG00000138411
ENSG00000218713
ENSG00000116157
ENSG00000156110
ENSG00000253330
ENSG00000072657
ENSG00000135414
ENSG00000245466
ENSG00000166922
ENSG00000174370
ENSG00000279476
ENSG00000285041
ENSG00000102362
ENSG00000110492
ENSG00000163874
ENSG00000142698
ENSG00000174405
ENSG00000275134
ENSG00000226808
ENSG00000198937
ENSG00000100344
ENSG00000255883
ENSG00000135604
ENSG00000131236
ENSG00000115525
ENSG00000136444
ENSG00000137563
ENSG00000156239
ENSG00000034510
ENSG00000164056
ENSG00000156219
ENSG00000065361
ENSG00000091947
ENSG00000201036
ENSG00000243147
ENSG00000015568
ENSG00000120820
ENSG00000285366
ENSG00000163638
ENSG00000164270
ENSG00000164418
ENSG00000147010
ENSG00000113140
ENSG00000269656
ENSG00000273319
ENSG00000169567
ENSG00000177685
ENSG00000136026
ENSG00000169764
ENSG00000224973
ENSG00000285936
ENSG00000131779
ENSG00000115540
ENSG00000135253
ENSG00000279917
ENSG00000199575
ENSG00000230578
ENSG00000237210
ENSG00000163602
ENSG00000168509
ENSG00000101282
ENSG00000119660
ENSG00000184905
ENSG00000255561
ENSG00000135903
ENSG00000050767
ENSG00000205534
ENSG00000243915
ENSG00000171155
ENSG00000261602
ENSG00000110200
ENSG00000128573
ENSG00000150630
ENSG00000162511
ENSG00000110092
ENSG00000188163
ENSG00000112175
ENSG00000230495
ENSG00000142347
ENSG00000188452
ENSG00000134202
ENSG00000174307
ENSG00000249623
ENSG00000101470
ENSG00000152240
ENSG00000122483
ENSG00000051523
ENSG00000177103
ENSG00000269397
ENSG00000196684
ENSG00000178776
ENSG00000179148
ENSG00000004468
ENSG00000177606
ENSG00000136010
ENSG00000146809
ENSG00000169302
ENSG00000140497
ENSG00000189369
ENSG00000151692
ENSG00000285681
ENSG00000130522
ENSG00000255150
ENSG00000111780
ENSG00000250641
ENSG00000256128
ENSG00000227028
ENSG00000106355
ENSG00000140105
ENSG00000225402
ENSG00000257341
ENSG00000285845
ENSG00000100632
ENSG00000232385
ENSG00000155366
ENSG00000139354
ENSG00000241468
ENSG00000107960
ENSG00000148053
ENSG00000185627
ENSG00000277701
ENSG00000084073
ENSG00000140092
ENSG00000216316
ENSG00000005884
ENSG00000178947
ENSG00000213453
ENSG00000164405
ENSG00000065534
ENSG00000279780
ENSG00000176597
ENSG00000257730
ENSG00000272573
ENSG00000004777
ENSG00000233030
ENSG00000283473
ENSG00000166670
ENSG00000180113
ENSG00000224413
ENSG00000235016
ENSG00000122691
ENSG00000225519
ENSG00000157778
ENSG00000231201
ENSG00000255526
ENSG00000106976
ENSG00000144843
ENSG00000182871
ENSG00000232535
ENSG00000167553
ENSG00000248927
ENSG00000125354
ENSG00000188501
ENSG00000136928
ENSG00000133169
ENSG00000164096
ENSG00000204071
ENSG00000275927
ENSG00000176014
ENSG00000022277
ENSG00000259884
ENSG00000009844
ENSG00000124562
ENSG00000070010
ENSG00000172244
ENSG00000163993
ENSG00000184076
ENSG00000198517
ENSG00000280003
ENSG00000079616
ENSG00000175595
ENSG00000171621
ENSG00000206053
ENSG00000116171
ENSG00000198538
ENSG00000161057
ENSG00000214846
ENSG00000101134
ENSG00000133063
ENSG00000227471
ENSG00000231826
ENSG00000260721
ENSG00000228174
ENSG00000149922
ENSG00000234571
ENSG00000268621
ENSG00000227496
ENSG00000240418
ENSG00000100744
ENSG00000134249
ENSG00000237417
ENSG00000153551
ENSG00000149196
ENSG00000125618
ENSG00000237976
ENSG00000159618
ENSG00000140365
ENSG00000259434
ENSG00000234329
ENSG00000242607
ENSG00000132002
ENSG00000140254
ENSG00000103067
ENSG00000129538
ENSG00000135919
ENSG00000137726
ENSG00000180530
ENSG00000152578
ENSG00000099338
ENSG00000189136
ENSG00000101812
ENSG00000132591
ENSG00000145685
ENSG00000100823
ENSG00000267106
ENSG00000230454
ENSG00000149554
ENSG00000185739
ENSG00000161653
ENSG00000110031
ENSG00000279993
ENSG00000102290
ENSG00000285188
ENSG00000229721
ENSG00000119878
ENSG00000031691
ENSG00000250116
ENSG00000257195
ENSG00000279502
ENSG00000234129
ENSG00000247011
ENSG00000165934
ENSG00000259274
ENSG00000146278
ENSG00000264019
ENSG00000267892
ENSG00000206562
ENSG00000143384
ENSG00000116983
ENSG00000234840
ENSG00000104660
ENSG00000259135
ENSG00000129988
ENSG00000139219
ENSG00000152217
ENSG00000124357
ENSG00000227076
ENSG00000224743
ENSG00000111669
ENSG00000213297
ENSG00000260442
ENSG00000230910
ENSG00000165521
ENSG00000173918
ENSG00000196338
ENSG00000101182
ENSG00000173542
ENSG00000118985
ENSG00000112118
ENSG00000267886
ENSG00000150316
ENSG00000228857
ENSG00000164332
ENSG00000129038
ENSG00000033867
ENSG00000144749
ENSG00000011143
ENSG00000175505
ENSG00000130517
ENSG00000264916
ENSG00000260192
ENSG00000137193
ENSG00000213123
ENSG00000223730
ENSG00000236478
ENSG00000104415
ENSG00000171522
ENSG00000107611
ENSG00000188042
ENSG00000172667
ENSG00000154518
ENSG00000187144
ENSG00000184451
ENSG00000240225
ENSG00000155330
ENSG00000143545
ENSG00000000460
ENSG00000180879
ENSG00000184005
ENSG00000276564
ENSG00000079459
ENSG00000166263
ENSG00000225808
ENSG00000162757
ENSG00000244470
ENSG00000271754
ENSG00000178802
ENSG00000136122
ENSG00000234756
ENSG00000267228
ENSG00000158864
ENSG00000090447
ENSG00000183010
ENSG00000179387
ENSG00000068097
ENSG00000125266
ENSG00000238048
ENSG00000124766
ENSG00000077549
ENSG00000065457
ENSG00000105696
ENSG00000111328
ENSG00000183154
ENSG00000159352
ENSG00000259001
ENSG00000231482
ENSG00000198721
ENSG00000279490
ENSG00000142675
ENSG00000122257
ENSG00000073737
ENSG00000125462
ENSG00000116560
ENSG00000148688
ENSG00000143248
ENSG00000184302
ENSG00000092621
ENSG00000254870
ENSG00000135828
ENSG00000141744
ENSG00000197935
ENSG00000276410
ENSG00000143499
ENSG00000124205
ENSG00000272921
ENSG00000279320
ENSG00000158517
ENSG00000136457
ENSG00000230001
ENSG00000236947
ENSG00000271329
ENSG00000279901
ENSG00000162944
ENSG00000087258
ENSG00000166619
ENSG00000279427
ENSG00000151881
ENSG00000176641
ENSG00000260621
ENSG00000112343
ENSG00000171202
ENSG00000177697
ENSG00000259735
ENSG00000231419
ENSG00000184205
ENSG00000123689
ENSG00000174403
ENSG00000178127
ENSG00000258365
ENSG00000258399
ENSG00000201240
ENSG00000263934
ENSG00000146143
ENSG00000101306
ENSG00000137845
ENSG00000236782
ENSG00000248373
ENSG00000259076
ENSG00000119912
ENSG00000134020
ENSG00000226686
ENSG00000237351
ENSG00000241959
ENSG00000136895
ENSG00000018236
ENSG00000052344
ENSG00000106399
ENSG00000167244
ENSG00000177464
ENSG00000165806
ENSG00000160392
ENSG00000136717
ENSG00000214188
ENSG00000260711
ENSG00000198677
ENSG00000108219
ENSG00000106123
ENSG00000232862
ENSG00000251143
ENSG00000050130
ENSG00000119138
ENSG00000147383
ENSG00000264964
ENSG00000159248
ENSG00000175538
ENSG00000135426
ENSG00000176623
ENSG00000119969
ENSG00000114744
ENSG00000197712
ENSG00000212978
ENSG00000105793
ENSG00000197520
ENSG00000240747
ENSG00000230839
ENSG00000162616
ENSG00000152292
ENSG00000204899
ENSG00000018280
ENSG00000198300
ENSG00000207743
ENSG00000117543
ENSG00000237949
ENSG00000284747
ENSG00000157106
ENSG00000198382
ENSG00000168412
ENSG00000254076
ENSG00000231698
ENSG00000162441
ENSG00000259535
ENSG00000165238
ENSG00000186815
ENSG00000278023
ENSG00000176928
ENSG00000143994
ENSG00000234520
ENSG00000196482
ENSG00000104435
ENSG00000040341
ENSG00000116161
ENSG00000145414
ENSG00000139133
ENSG00000186994
ENSG00000225383
ENSG00000171791
ENSG00000166451
ENSG00000160396
ENSG00000156395
ENSG00000285396
ENSG00000169862
ENSG00000234795
ENSG00000178104
ENSG00000227053
ENSG00000166432
ENSG00000274428
ENSG00000165731
ENSG00000068784
ENSG00000230732
ENSG00000221060
ENSG00000138107
ENSG00000095397
ENSG00000125398
ENSG00000202058
ENSG00000099860
ENSG00000164919
ENSG00000160602
ENSG00000005194
ENSG00000233290
ENSG00000241607
ENSG00000167772
ENSG00000201581
ENSG00000256061
ENSG00000168928
ENSG00000285521
ENSG00000109079
ENSG00000165660
ENSG00000143674
ENSG00000176533
ENSG00000130147
ENSG00000139289
ENSG00000198380
ENSG00000135476
ENSG00000214050
ENSG00000188120
ENSG00000183864
ENSG00000103184
ENSG00000172379
ENSG00000182742
ENSG00000183850
ENSG00000277734
ENSG00000120992
ENSG00000221844
ENSG00000104147
ENSG00000207378
ENSG00000121068
ENSG00000140350
ENSG00000196581
ENSG00000113845
ENSG00000124469
ENSG00000022267
ENSG00000272219
ENSG00000164253
ENSG00000234043
ENSG00000103375
ENSG00000106610
ENSG00000225711
ENSG00000113734
ENSG00000214562
ENSG00000133392
ENSG00000112320
ENSG00000137331
ENSG00000167491
ENSG00000171566
ENSG00000162396
ENSG00000069399
ENSG00000091490
ENSG00000135537
ENSG00000171812
ENSG00000102858
ENSG00000273143
ENSG00000238317
ENSG00000029639
ENSG00000049249
ENSG00000248323
ENSG00000072134
ENSG00000137802
ENSG00000164932
ENSG00000259847
ENSG00000267774
ENSG00000159176
ENSG00000162639
ENSG00000225850
ENSG00000233791
ENSG00000165312
ENSG00000235862
ENSG00000243130
ENSG00000169379
ENSG00000138663
ENSG00000046653
ENSG00000115380
ENSG00000107566
ENSG00000259358
ENSG00000185904
ENSG00000111667
ENSG00000259115
ENSG00000271377
ENSG00000177989
ENSG00000259002
ENSG00000055955
ENSG00000125753
ENSG00000237927
ENSG00000129534
ENSG00000239280
ENSG00000171587
ENSG00000250305
ENSG00000164161
ENSG00000166750
ENSG00000233485
ENSG00000138617
ENSG00000147400
ENSG00000156515
ENSG00000185477
ENSG00000164611
ENSG00000213281
ENSG00000267519
ENSG00000166394
ENSG00000205054
ENSG00000100347
ENSG00000108788
ENSG00000151012
ENSG00000240132
ENSG00000171747
ENSG00000284057
ENSG00000168803
ENSG00000076555
ENSG00000117682
ENSG00000107362
ENSG00000170476
ENSG00000213186
ENSG00000101811
ENSG00000173253
ENSG00000228983
ENSG00000101384
ENSG00000124019
ENSG00000129515
ENSG00000154479
ENSG00000153310
ENSG00000115091
ENSG00000164347
ENSG00000277999
ENSG00000184661
ENSG00000114416
ENSG00000151117
ENSG00000173221
ENSG00000216990
ENSG00000171497
ENSG00000225670
ENSG00000162961
ENSG00000175334
ENSG00000249279
ENSG00000272512
ENSG00000259383
ENSG00000237238
ENSG00000163535
ENSG00000184319
ENSG00000230066
ENSG00000156194
ENSG00000176024
ENSG00000095370
ENSG00000167941
ENSG00000266088
ENSG00000136867
ENSG00000160447
ENSG00000104081
ENSG00000163170
ENSG00000103994
ENSG00000009950
ENSG00000253309
ENSG00000243444
ENSG00000243149
ENSG00000225358
ENSG00000127824
ENSG00000183691
ENSG00000183155
ENSG00000285509
ENSG00000138413
ENSG00000259659
ENSG00000163743
ENSG00000091844
ENSG00000119203
ENSG00000231259
ENSG00000197119
ENSG00000236345
ENSG00000171067
ENSG00000240723
ENSG00000167380
ENSG00000255129
ENSG00000189350
ENSG00000169213
ENSG00000170374
ENSG00000138363
ENSG00000270823
ENSG00000277981
ENSG00000156709
ENSG00000115884
ENSG00000062598
ENSG00000075711
ENSG00000102048
ENSG00000172456
ENSG00000150779
ENSG00000092841
ENSG00000053770
ENSG00000060138
ENSG00000213889
ENSG00000105011
ENSG00000181004
ENSG00000100902
ENSG00000227579
ENSG00000224389
ENSG00000249628
ENSG00000102096
ENSG00000008710
ENSG00000112941
ENSG00000204657
ENSG00000104419
ENSG00000131730
ENSG00000136738
ENSG00000132196
ENSG00000065054
ENSG00000283267
ENSG00000100479
ENSG00000129083
ENSG00000254602
ENSG00000106305
ENSG00000106617
ENSG00000102312
ENSG00000171056
ENSG00000186377
ENSG00000143842
ENSG00000164211
ENSG00000138760
ENSG00000156931
ENSG00000242094
ENSG00000120616
ENSG00000167281
ENSG00000203280
ENSG00000168952
ENSG00000258172
ENSG00000177335
ENSG00000251409
ENSG00000144485
ENSG00000125827
ENSG00000122512
ENSG00000167083
ENSG00000171314
ENSG00000156463
ENSG00000242087
ENSG00000001461
ENSG00000141367
ENSG00000232043
ENSG00000258405
ENSG00000279766
ENSG00000154719
ENSG00000196922
ENSG00000130529
ENSG00000225101
ENSG00000235859
ENSG00000124818
ENSG00000126759
ENSG00000163285
ENSG00000160446
ENSG00000280035
ENSG00000137996
ENSG00000135931
ENSG00000181789
ENSG00000223573
ENSG00000253995
ENSG00000136160
ENSG00000172172
ENSG00000123700
ENSG00000248383
ENSG00000145354
ENSG00000281186
ENSG00000103460
ENSG00000233175
ENSG00000267484
ENSG00000197978
ENSG00000241568
ENSG00000130309
ENSG00000106477
ENSG00000205323
ENSG00000228423
ENSG00000049192
ENSG00000127989
ENSG00000243789
ENSG00000175155
ENSG00000242337
ENSG00000134121
ENSG00000258311
ENSG00000100504
ENSG00000104133
ENSG00000172382
ENSG00000226774
ENSG00000104856
ENSG00000131037
ENSG00000125848
ENSG00000251002
ENSG00000179933
ENSG00000254505
ENSG00000100417
ENSG00000136014
ENSG00000196912
ENSG00000128918
ENSG00000112208
ENSG00000087088
ENSG00000005961
ENSG00000023330
ENSG00000157379
ENSG00000259374
ENSG00000251128
ENSG00000176340
ENSG00000104313
ENSG00000168496
ENSG00000108666
ENSG00000115232
ENSG00000186231
ENSG00000119227
ENSG00000135930
ENSG00000272975
ENSG00000184557
ENSG00000274012
ENSG00000285980
ENSG00000132326
ENSG00000157306
ENSG00000100038
ENSG00000254867
ENSG00000104213
ENSG00000167862
ENSG00000100626
ENSG00000183134
ENSG00000206448
ENSG00000246526
ENSG00000178053
ENSG00000285564
ENSG00000225855
ENSG00000187672
ENSG00000139926
ENSG00000166816
ENSG00000112110
ENSG00000154856
ENSG00000154153
ENSG00000223784
ENSG00000230384
ENSG00000155906
ENSG00000110074
ENSG00000162813
ENSG00000103066
ENSG00000234546
ENSG00000184432
ENSG00000285847
ENSG00000175445
ENSG00000184900
ENSG00000088992
ENSG00000228474
ENSG00000273442
ENSG00000236804
ENSG00000125611
ENSG00000100628
ENSG00000163915
ENSG00000230587
ENSG00000178726
ENSG00000172215
ENSG00000100749
ENSG00000175820
ENSG00000230606
ENSG00000169299
ENSG00000178966
ENSG00000187800
ENSG00000172757
ENSG00000154429
ENSG00000249963
ENSG00000120333
ENSG00000214842
ENSG00000261251
ENSG00000069329
ENSG00000077264
ENSG00000124783
ENSG00000257242
ENSG00000285791
ENSG00000182841
ENSG00000267855
ENSG00000099875
ENSG00000227617
ENSG00000106605
ENSG00000019485
ENSG00000023228
ENSG00000065621
ENSG00000107099
ENSG00000272808
ENSG00000259398
ENSG00000178860
ENSG00000168288
ENSG00000253636
ENSG00000169067
ENSG00000224074
ENSG00000100678
ENSG00000143797
ENSG00000181074
ENSG00000139291
ENSG00000231999
ENSG00000250021
ENSG00000251003
ENSG00000247809
ENSG00000164162
ENSG00000159217
ENSG00000279117
ENSG00000201699
ENSG00000126247
ENSG00000218521
ENSG00000121766
ENSG00000134440
ENSG00000137860
ENSG00000184207
ENSG00000120675
ENSG00000170917
ENSG00000005102
ENSG00000131650
ENSG00000197128
ENSG00000228286
ENSG00000130348
ENSG00000131732
ENSG00000258682
ENSG00000268015
ENSG00000172113
ENSG00000143171
ENSG00000100028
ENSG00000273259
ENSG00000114737
ENSG00000154040
ENSG00000202502
ENSG00000213030
ENSG00000253301
ENSG00000255983
ENSG00000273450
ENSG00000188010
ENSG00000010319
ENSG00000173757
ENSG00000132541
ENSG00000115661
ENSG00000259275
ENSG00000124733
ENSG00000126768
ENSG00000247556
ENSG00000137500
ENSG00000200480
ENSG00000251661
ENSG00000276710
ENSG00000188931
ENSG00000131849
ENSG00000187857
ENSG00000007350
ENSG00000035403
ENSG00000169689
ENSG00000249531
ENSG00000248283
ENSG00000211935
ENSG00000217555
ENSG00000154473
ENSG00000197905
ENSG00000171368
ENSG00000008018
ENSG00000144815
ENSG00000230581
ENSG00000087074
ENSG00000168615
ENSG00000260351
ENSG00000285410
ENSG00000183798
ENSG00000147174
ENSG00000064652
ENSG00000011105
ENSG00000127412
ENSG00000240370
ENSG00000155897
ENSG00000114656
ENSG00000134533
ENSG00000280365
ENSG00000100804
ENSG00000086300
ENSG00000143107
ENSG00000161217
ENSG00000261205
ENSG00000112584
ENSG00000116183
ENSG00000213058
ENSG00000127324
ENSG00000100234
ENSG00000235532
ENSG00000156427
ENSG00000267333
ENSG00000163235
ENSG00000123685
ENSG00000284716
ENSG00000260565
ENSG00000166167
ENSG00000270300
ENSG00000123415
ENSG00000154839
ENSG00000135775
ENSG00000133816
ENSG00000149256
ENSG00000136485
ENSG00000163661
ENSG00000188906
ENSG00000228903
ENSG00000245534
ENSG00000142227
ENSG00000116120
ENSG00000161980
ENSG00000157343
ENSG00000102007
ENSG00000112096
ENSG00000239900
ENSG00000146416
ENSG00000211897
ENSG00000237433
ENSG00000259295
ENSG00000153130
ENSG00000075624
ENSG00000185046
ENSG00000258644
ENSG00000164244
ENSG00000188825
ENSG00000185515
ENSG00000139180
ENSG00000278238
ENSG00000249680
ENSG00000272734
ENSG00000101447
ENSG00000133119
ENSG00000178795
ENSG00000224468
ENSG00000276662
ENSG00000131773
ENSG00000119471
ENSG00000152147
ENSG00000134575
ENSG00000175556
ENSG00000259477
ENSG00000128394
ENSG00000105643
ENSG00000138942
ENSG00000174106
ENSG00000091536
ENSG00000087116
ENSG00000271532
ENSG00000143473
ENSG00000213799
ENSG00000196812
ENSG00000256568
ENSG00000257754
ENSG00000141456
ENSG00000140287
ENSG00000143183
ENSG00000156885
ENSG00000101204
ENSG00000166793
ENSG00000177963
ENSG00000215458
ENSG00000242950
ENSG00000259881
ENSG00000013810
ENSG00000125445
ENSG00000278330
ENSG00000154930
ENSG00000153721
ENSG00000080166
ENSG00000181016
ENSG00000259891
ENSG00000165283
ENSG00000185250
ENSG00000249145
ENSG00000161850
ENSG00000138071
ENSG00000170209
ENSG00000013503
ENSG00000135336
ENSG00000184860
ENSG00000231508
ENSG00000279041
ENSG00000071127
ENSG00000175003
ENSG00000157510
ENSG00000088298
ENSG00000091704
ENSG00000244187
ENSG00000100387
ENSG00000122783
ENSG00000217702
ENSG00000253173
ENSG00000256053
ENSG00000243101
ENSG00000261832
ENSG00000146457
ENSG00000138678
ENSG00000081870
ENSG00000117115
ENSG00000165092
ENSG00000283537
ENSG00000237031
ENSG00000160352
ENSG00000279602
ENSG00000160180
ENSG00000162819
ENSG00000259146
ENSG00000060982
ENSG00000042753
ENSG00000102908
ENSG00000135900
ENSG00000197124
ENSG00000083099
ENSG00000248483
ENSG00000234773
ENSG00000132329
ENSG00000229010
ENSG00000101144
ENSG00000177463
ENSG00000176531
ENSG00000118785
ENSG00000155115
ENSG00000198924
ENSG00000198176
ENSG00000105373
ENSG00000236242
ENSG00000125841
ENSG00000173915
ENSG00000232693
ENSG00000232850
ENSG00000164051
ENSG00000166825
ENSG00000178222
ENSG00000169418
ENSG00000250869
ENSG00000151806
ENSG00000224057
ENSG00000133731
ENSG00000167315
ENSG00000108557
ENSG00000183444
ENSG00000263603
ENSG00000226396
ENSG00000139625
ENSG00000182718
ENSG00000140534
ENSG00000224790
ENSG00000241295
ENSG00000115041
ENSG00000188001
ENSG00000180190
ENSG00000213585
ENSG00000230479
ENSG00000145075
ENSG00000131097
ENSG00000120594
ENSG00000166446
ENSG00000109099
ENSG00000185942
ENSG00000267209
ENSG00000241684
ENSG00000105926
ENSG00000115159
ENSG00000143106
ENSG00000215262
ENSG00000277959
ENSG00000122565
ENSG00000164305
ENSG00000109689
ENSG00000111860
ENSG00000123453
ENSG00000231134
ENSG00000137070
ENSG00000139915
ENSG00000138303
ENSG00000244038
ENSG00000168062
ENSG00000154723
ENSG00000183726
ENSG00000061337
ENSG00000178445
ENSG00000160050
ENSG00000162704
ENSG00000260278
ENSG00000145020
ENSG00000216809
ENSG00000278615
ENSG00000168309
ENSG00000270259
ENSG00000204256
ENSG00000256040
ENSG00000102699
ENSG00000284946
ENSG00000273451
ENSG00000279159
ENSG00000259591
ENSG00000081985
ENSG00000100439
ENSG00000119537
ENSG00000197536
ENSG00000113119
ENSG00000105341
ENSG00000119640
ENSG00000223599
ENSG00000162620
ENSG00000101247
ENSG00000054392
ENSG00000113068
ENSG00000266993
ENSG00000167106
ENSG00000082126
ENSG00000067191
ENSG00000123901
ENSG00000140398
ENSG00000144120
ENSG00000183340
ENSG00000149636
ENSG00000250568
ENSG00000235236
ENSG00000254730
ENSG00000011347
ENSG00000012171
ENSG00000235703
ENSG00000115109
ENSG00000261216
ENSG00000123600
ENSG00000245552
ENSG00000145781
ENSG00000234206
ENSG00000116288
ENSG00000103051
ENSG00000104371
ENSG00000275607
ENSG00000079435
ENSG00000204362
ENSG00000113597
ENSG00000273017
ENSG00000082213
ENSG00000242861
ENSG00000121236
ENSG00000182712
ENSG00000160808
ENSG00000129317
ENSG00000105171
ENSG00000035141
ENSG00000108924
ENSG00000127423
ENSG00000242912
ENSG00000176473
ENSG00000167912
ENSG00000119950
ENSG00000168811
ENSG00000010818
ENSG00000125347
ENSG00000156795
ENSG00000231054
ENSG00000135148
ENSG00000163596
ENSG00000267582
ENSG00000138613
ENSG00000254676
ENSG00000237596
ENSG00000249835
ENSG00000112514
ENSG00000162437
ENSG00000166845
ENSG00000238105
ENSG00000134013
ENSG00000172531
ENSG00000257337
ENSG00000167118
ENSG00000167925
ENSG00000169288
ENSG00000159239
ENSG00000184209
ENSG00000237390
ENSG00000241832
ENSG00000105829
ENSG00000138698
ENSG00000115226
ENSG00000120162
ENSG00000134910
ENSG00000168090
ENSG00000196323
ENSG00000174744
ENSG00000258727
ENSG00000140488
ENSG00000153012
ENSG00000105737
ENSG00000143575
ENSG00000234323
ENSG00000258584
ENSG00000106829
ENSG00000171476
ENSG00000177363
ENSG00000262147
ENSG00000158427
ENSG00000276791
ENSG00000145715
ENSG00000186847
ENSG00000196656
ENSG00000183978
ENSG00000277579
ENSG00000258232
ENSG00000137880
ENSG00000250251
ENSG00000106346
ENSG00000168393
ENSG00000111237
ENSG00000196341
ENSG00000204520
ENSG00000086666
ENSG00000231707
ENSG00000267575
ENSG00000140450
ENSG00000226094
ENSG00000115486
ENSG00000146070
ENSG00000186834
ENSG00000269540
ENSG00000055483
ENSG00000183255
ENSG00000224722
ENSG00000230533
ENSG00000181804
ENSG00000130598
ENSG00000124564
ENSG00000233820
ENSG00000238042
ENSG00000279977
ENSG00000080854
ENSG00000129245
ENSG00000184840
ENSG00000213240
ENSG00000187713
ENSG00000137288
ENSG00000226801
ENSG00000241155
ENSG00000233929
ENSG00000156983
ENSG00000142583
ENSG00000181908
ENSG00000197894
ENSG00000186105
ENSG00000156535
ENSG00000244067
ENSG00000276956
ENSG00000110583
ENSG00000100395
ENSG00000133142
ENSG00000159388
ENSG00000230364
ENSG00000117154
ENSG00000272320
ENSG00000144048
ENSG00000099341
ENSG00000285691
ENSG00000144771
ENSG00000130816
ENSG00000263276
ENSG00000108100
ENSG00000229696
ENSG00000222448
ENSG00000170561
ENSG00000185002
ENSG00000126878
ENSG00000138435
ENSG00000163792
ENSG00000185567
ENSG00000271044
ENSG00000211592
ENSG00000233242
ENSG00000250041
ENSG00000152484
ENSG00000260244
ENSG00000169429
ENSG00000022355
ENSG00000106436
ENSG00000186198
ENSG00000141753
ENSG00000032389
ENSG00000254764
ENSG00000250827
ENSG00000283001
ENSG00000099326
ENSG00000104765
ENSG00000258441
ENSG00000279549
ENSG00000137364
ENSG00000183161
ENSG00000171671
ENSG00000275004
ENSG00000132256
ENSG00000161921
ENSG00000282556
ENSG00000165672
ENSG00000211454
ENSG00000166341
ENSG00000285852
ENSG00000251473
ENSG00000136630
ENSG00000140319
ENSG00000166171
ENSG00000171051
ENSG00000260372
ENSG00000237951
ENSG00000269968
ENSG00000229206
ENSG00000111424
ENSG00000182197
ENSG00000140598
ENSG00000105851
ENSG00000152527
ENSG00000100297
ENSG00000172123
ENSG00000198805
ENSG00000278464
ENSG00000277677
ENSG00000164902
ENSG00000147894
ENSG00000279199
ENSG00000122367
ENSG00000135341
ENSG00000122035
ENSG00000235881
ENSG00000069122
ENSG00000166801
ENSG00000115461
ENSG00000137975
ENSG00000100226
ENSG00000129559
ENSG00000225057
ENSG00000198879
ENSG00000164463
ENSG00000233431
ENSG00000261067
ENSG00000204481
ENSG00000141527
ENSG00000163660
ENSG00000099204
ENSG00000135218
ENSG00000225826
ENSG00000251637
ENSG00000149380
ENSG00000111358
ENSG00000165682
ENSG00000163563
ENSG00000232818
ENSG00000237742
ENSG00000176393
ENSG00000259732
ENSG00000284670
ENSG00000229502
ENSG00000198464
ENSG00000261523
ENSG00000250290
ENSG00000136379
ENSG00000183011
ENSG00000143552
ENSG00000110717
ENSG00000168769
ENSG00000213337
ENSG00000226087
ENSG00000092208
ENSG00000160213
ENSG00000011258
ENSG00000135974
ENSG00000180257
ENSG00000113569
ENSG00000259756
ENSG00000267731
ENSG00000228725
ENSG00000256525
ENSG00000267026
ENSG00000111652
ENSG00000231776
ENSG00000108439
ENSG00000267500
ENSG00000259630
ENSG00000185651
ENSG00000075914
ENSG00000107262
ENSG00000124641
ENSG00000137710
ENSG00000277283
ENSG00000011009
ENSG00000257732
ENSG00000092929
ENSG00000234719
ENSG00000198075
ENSG00000187510
ENSG00000211445
ENSG00000254656
ENSG00000091483
ENSG00000167460
ENSG00000279880
ENSG00000185652
ENSG00000234961
ENSG00000173085
ENSG00000172269
ENSG00000176435
ENSG00000184924
ENSG00000124343
ENSG00000166189
ENSG00000159788
ENSG00000063660
ENSG00000105968
ENSG00000103275
ENSG00000112977
ENSG00000125995
ENSG00000273415
ENSG00000108094
ENSG00000271096
ENSG00000279410
ENSG00000087111
ENSG00000168461
ENSG00000133048
ENSG00000169203
ENSG00000231616
ENSG00000228981
ENSG00000251194
ENSG00000280377
ENSG00000196214
ENSG00000162522
ENSG00000260316
ENSG00000198865
ENSG00000196975
ENSG00000163877
ENSG00000006607
ENSG00000112293
ENSG00000138623
ENSG00000229492
ENSG00000110013
ENSG00000143079
ENSG00000204449
ENSG00000123570
ENSG00000228939
ENSG00000261036
ENSG00000148950
ENSG00000197713
ENSG00000166337
ENSG00000201500
ENSG00000151445
ENSG00000166452
ENSG00000226287
ENSG00000172201
ENSG00000249937
ENSG00000130720
ENSG00000146376
ENSG00000006715
ENSG00000172340
ENSG00000259112
ENSG00000273076
ENSG00000139641
ENSG00000177830
ENSG00000179082
ENSG00000198734
ENSG00000243716
ENSG00000279099
ENSG00000154079
ENSG00000196730
ENSG00000145431
ENSG00000260708
ENSG00000274093
ENSG00000184361
ENSG00000132681
ENSG00000173848
ENSG00000149782
ENSG00000218823
ENSG00000087510
ENSG00000118898
ENSG00000229473
ENSG00000162572
ENSG00000004848
ENSG00000196154
ENSG00000101132
ENSG00000225364
ENSG00000149451
ENSG00000120860
ENSG00000157214
ENSG00000179954
ENSG00000175727
ENSG00000213250
ENSG00000252361
ENSG00000234136
ENSG00000170473
ENSG00000053438
ENSG00000134352
ENSG00000182362
ENSG00000273264
ENSG00000137806
ENSG00000197372
ENSG00000284606
ENSG00000133401
ENSG00000160193
ENSG00000273566
ENSG00000198812
ENSG00000146250
ENSG00000256734
ENSG00000070669
ENSG00000197728
ENSG00000096060
ENSG00000167562
ENSG00000183160
ENSG00000224505
ENSG00000249729
ENSG00000117899
ENSG00000267508
ENSG00000196689
ENSG00000284657
ENSG00000167272
ENSG00000143771
ENSG00000130158
ENSG00000157927
ENSG00000178752
ENSG00000232587
ENSG00000261206
ENSG00000010256
ENSG00000068796
ENSG00000126106
ENSG00000134962
ENSG00000198915
ENSG00000104783
ENSG00000215386
ENSG00000238197
ENSG00000261771
ENSG00000165416
ENSG00000211899
ENSG00000280036
ENSG00000174886
ENSG00000137720
ENSG00000179314
ENSG00000118729
ENSG00000284969
ENSG00000283384
ENSG00000182481
ENSG00000163933
ENSG00000197629
ENSG00000165629
ENSG00000119718
ENSG00000052749
ENSG00000244355
ENSG00000173157
ENSG00000168002
ENSG00000152455
ENSG00000139168
ENSG00000148444
ENSG00000170445
ENSG00000163273
ENSG00000283740
ENSG00000115233
ENSG00000165929
ENSG00000233478
ENSG00000119401
ENSG00000075218
ENSG00000128581
ENSG00000163539
ENSG00000124380
ENSG00000234261
ENSG00000072864
ENSG00000239653
ENSG00000273173
ENSG00000247775
ENSG00000255967
ENSG00000223485
ENSG00000230461
ENSG00000176102
ENSG00000130695
ENSG00000087191
ENSG00000185420
ENSG00000157119
ENSG00000053702
ENSG00000285871
ENSG00000261544
ENSG00000020577
ENSG00000147874
ENSG00000124532
ENSG00000139350
ENSG00000167770
ENSG00000108556
ENSG00000116030
ENSG00000261202
ENSG00000022567
ENSG00000196890
ENSG00000142961
ENSG00000158825
ENSG00000173705
ENSG00000229999
ENSG00000253550
ENSG00000163815
ENSG00000160014
ENSG00000279573
ENSG00000060656
ENSG00000018189
ENSG00000187840
ENSG00000127589
ENSG00000185065
ENSG00000280408
ENSG00000127528
ENSG00000268798
ENSG00000243514
ENSG00000041880
ENSG00000136828
ENSG00000222009
ENSG00000255065
ENSG00000074416
ENSG00000143315
ENSG00000162929
ENSG00000103855
ENSG00000261987
ENSG00000213976
ENSG00000100401
ENSG00000141404
ENSG00000236807
ENSG00000170759
ENSG00000153132
ENSG00000100296
ENSG00000111012
ENSG00000163734
ENSG00000196139
ENSG00000241735
ENSG00000122121
ENSG00000260136
ENSG00000134250
ENSG00000172482
ENSG00000107147
ENSG00000168564
ENSG00000103494
ENSG00000268472
ENSG00000281974
ENSG00000246889
ENSG00000167711
ENSG00000085741
ENSG00000273058
ENSG00000258820
ENSG00000261351
ENSG00000087302
ENSG00000186575
ENSG00000164406
ENSG00000124374
ENSG00000198873
ENSG00000241985
ENSG00000152784
ENSG00000198429
ENSG00000137038
ENSG00000135902
ENSG00000167858
ENSG00000271880
ENSG00000138111
ENSG00000171617
ENSG00000279078
ENSG00000162769
ENSG00000105355
ENSG00000278318
ENSG00000181007
ENSG00000198912
ENSG00000284862
ENSG00000124610
ENSG00000172575
ENSG00000136631
ENSG00000152223
ENSG00000200220
ENSG00000237280
ENSG00000243659
ENSG00000268628
ENSG00000131473
ENSG00000082196
ENSG00000060339
ENSG00000139874
ENSG00000185950
ENSG00000230453
ENSG00000112685
ENSG00000119616
ENSG00000198028
ENSG00000168056
ENSG00000243313
ENSG00000280832
ENSG00000198056
ENSG00000273682
ENSG00000149403
ENSG00000155660
ENSG00000198729
ENSG00000272970
ENSG00000094661
ENSG00000157823
ENSG00000164002
ENSG00000233828
ENSG00000270641
ENSG00000283293
ENSG00000260859
ENSG00000171408
ENSG00000205177
ENSG00000279057
ENSG00000147614
ENSG00000167085
ENSG00000092607
ENSG00000171612
ENSG00000169071
ENSG00000196739
ENSG00000148484
ENSG00000246640
ENSG00000100033
ENSG00000113048
ENSG00000152409
ENSG00000171806
ENSG00000270100
ENSG00000279269
ENSG00000166681
ENSG00000255321
ENSG00000270571
ENSG00000006740
ENSG00000167325
ENSG00000279803
ENSG00000272159
ENSG00000273796
ENSG00000228485
ENSG00000137875
ENSG00000212961
ENSG00000104885
ENSG00000280587
ENSG00000165244
ENSG00000181626
ENSG00000259070
ENSG00000257446
ENSG00000120265
ENSG00000183979
ENSG00000178685
ENSG00000156304
ENSG00000176454
ENSG00000198496
ENSG00000232337
ENSG00000166086
ENSG00000229808
ENSG00000115750
ENSG00000168874
ENSG00000108576
ENSG00000181852
ENSG00000196455
ENSG00000260914
ENSG00000238160
ENSG00000135457
ENSG00000230171
ENSG00000239920
ENSG00000247675
ENSG00000279147
ENSG00000108510
ENSG00000121073
ENSG00000203780
ENSG00000213523
ENSG00000261537
ENSG00000135740
ENSG00000163545
ENSG00000175489
ENSG00000237818
ENSG00000063601
ENSG00000112759
ENSG00000114859
ENSG00000143061
ENSG00000172292
ENSG00000262049
ENSG00000280138
ENSG00000140526
ENSG00000136448
ENSG00000146733
ENSG00000165424
ENSG00000117226
ENSG00000213700
ENSG00000250490
ENSG00000257042
ENSG00000170779
ENSG00000105204
ENSG00000166794
ENSG00000232846
ENSG00000237529
ENSG00000103485
ENSG00000117450
ENSG00000272345
ENSG00000277758
ENSG00000132432
ENSG00000104369
ENSG00000177839
ENSG00000186038
ENSG00000225973
ENSG00000230550
ENSG00000255358
ENSG00000237797
ENSG00000273998
ENSG00000121101
ENSG00000184206
ENSG00000259479
ENSG00000284292
ENSG00000262873
ENSG00000160563
ENSG00000233012
ENSG00000124444
ENSG00000112715
ENSG00000151239
ENSG00000244681
ENSG00000102802
ENSG00000198774
ENSG00000038002
ENSG00000199942
ENSG00000172216
ENSG00000233101
ENSG00000159259
ENSG00000116237
ENSG00000226987
ENSG00000200091
ENSG00000230368
ENSG00000104325
ENSG00000140009
ENSG00000233560
ENSG00000137404
ENSG00000145014
ENSG00000223819
ENSG00000104490
ENSG00000121022
ENSG00000125971
ENSG00000241158
ENSG00000269959
ENSG00000095261
ENSG00000257275
ENSG00000266472
ENSG00000198064
ENSG00000198742
ENSG00000225697
ENSG00000249258
ENSG00000261888
ENSG00000184232
ENSG00000278978
ENSG00000187682
ENSG00000196353
ENSG00000232036
ENSG00000132964
ENSG00000225832
ENSG00000106526
ENSG00000152133
ENSG00000261408
ENSG00000141384
ENSG00000180964
ENSG00000125430
ENSG00000135778
ENSG00000139318
ENSG00000215014
ENSG00000187555
ENSG00000136319
ENSG00000279810
ENSG00000139233
ENSG00000105339
ENSG00000151148
ENSG00000162444
ENSG00000227006
ENSG00000134996
ENSG00000100652
ENSG00000177628
ENSG00000184515
ENSG00000130396
ENSG00000245293
ENSG00000204516
ENSG00000074696
ENSG00000102753
ENSG00000167964
ENSG00000242485
ENSG00000279175
ENSG00000122574
ENSG00000213024
ENSG00000019582
ENSG00000157600
ENSG00000081041
ENSG00000244242
ENSG00000163347
ENSG00000047365
ENSG00000221955
ENSG00000205189
ENSG00000157766
ENSG00000135945
ENSG00000278879
ENSG00000174808
ENSG00000111110
ENSG00000111341
ENSG00000117791
ENSG00000165966
ENSG00000179021
ENSG00000185825
ENSG00000261324
ENSG00000203647
ENSG00000155393
ENSG00000170266
ENSG00000201028
ENSG00000116489
ENSG00000107249
ENSG00000137672
ENSG00000169189
ENSG00000217078
ENSG00000169246
ENSG00000010219
ENSG00000116661
ENSG00000198959
ENSG00000169016
ENSG00000227908
ENSG00000241098
ENSG00000111785
ENSG00000165948
ENSG00000196436
ENSG00000228221
ENSG00000236327
ENSG00000166333
ENSG00000255330
ENSG00000012174
ENSG00000225210
ENSG00000163864
ENSG00000123297
ENSG00000151366
ENSG00000132718
ENSG00000185864
ENSG00000265462
ENSG00000255823
ENSG00000006071
ENSG00000166135
ENSG00000233184
ENSG00000140478
ENSG00000236306
ENSG00000077150
ENSG00000166682
ENSG00000071537
ENSG00000137168
ENSG00000104635
ENSG00000225303
ENSG00000138100
ENSG00000153044
ENSG00000233366
ENSG00000178295
ENSG00000187627
ENSG00000218749
ENSG00000170153
ENSG00000135097
ENSG00000168754
ENSG00000177426
ENSG00000114796
ENSG00000006534
ENSG00000103089
ENSG00000130204
ENSG00000279792
ENSG00000283516
ENSG00000225581
ENSG00000187118
ENSG00000112406
ENSG00000226891
ENSG00000198853
ENSG00000257359
ENSG00000204681
ENSG00000233397
ENSG00000273897
ENSG00000256690
ENSG00000243667
ENSG00000116539
ENSG00000188316
ENSG00000279649
ENSG00000163491
ENSG00000172939
ENSG00000070540
ENSG00000166840
ENSG00000204539
ENSG00000189223
ENSG00000125386
ENSG00000163331
ENSG00000135722
ENSG00000186193
ENSG00000198467
ENSG00000250167
ENSG00000143252
ENSG00000122711
ENSG00000187105
ENSG00000164741
ENSG00000185608
ENSG00000236591
ENSG00000285838
ENSG00000285053
ENSG00000005421
ENSG00000063438
ENSG00000103671
ENSG00000112561
ENSG00000214212
ENSG00000159433
ENSG00000236674
ENSG00000198121
ENSG00000268089
ENSG00000196502
ENSG00000164815
ENSG00000231069
ENSG00000124356
ENSG00000271806
ENSG00000197019
ENSG00000263874
ENSG00000103591
ENSG00000183888
ENSG00000145555
ENSG00000172818
ENSG00000219023
ENSG00000104979
ENSG00000229622
ENSG00000222800
ENSG00000115129
ENSG00000075213
ENSG00000213365
ENSG00000228451
ENSG00000243914
ENSG00000255097
ENSG00000278341
ENSG00000226261
ENSG00000250137
ENSG00000264569
ENSG00000283696
ENSG00000242111
ENSG00000285646
ENSG00000176208
ENSG00000072736
ENSG00000279059
ENSG00000142606
ENSG00000279591
ENSG00000101844
ENSG00000215559
ENSG00000278963
ENSG00000130528
ENSG00000198258
ENSG00000186448
ENSG00000154511
ENSG00000011376
ENSG00000127946
ENSG00000251126
ENSG00000009709
ENSG00000149054
ENSG00000175305
ENSG00000182117
ENSG00000267079
ENSG00000285051
ENSG00000122873
ENSG00000282997
ENSG00000239149
ENSG00000233334
ENSG00000167914
ENSG00000232679
ENSG00000014641
ENSG00000236779
ENSG00000005100
ENSG00000118939
ENSG00000215174
ENSG00000113368
ENSG00000220694
ENSG00000066322
ENSG00000116285
ENSG00000196655
ENSG00000227017
ENSG00000270429
ENSG00000100319
ENSG00000181222
ENSG00000196419
ENSG00000225032
ENSG00000163827
ENSG00000170525
ENSG00000188959
ENSG00000257511
ENSG00000228830
ENSG00000256646
ENSG00000147459
ENSG00000149792
ENSG00000179284
ENSG00000186088
ENSG00000188732
ENSG00000196114
ENSG00000254901
ENSG00000276259
ENSG00000075131
ENSG00000126267
ENSG00000203778
ENSG00000279821
ENSG00000285330
ENSG00000188372
ENSG00000220848
ENSG00000272478
ENSG00000280160
ENSG00000237273
ENSG00000150995
ENSG00000151287
ENSG00000260971
ENSG00000197535
ENSG00000116141
ENSG00000099139
ENSG00000137491
ENSG00000145832
ENSG00000267530
ENSG00000261448
ENSG00000225505
ENSG00000118137
ENSG00000250831
ENSG00000205629
ENSG00000074660
ENSG00000114395
ENSG00000172572
ENSG00000137648
ENSG00000268931
ENSG00000280927
ENSG00000163635
ENSG00000204444
ENSG00000265396
ENSG00000174827
ENSG00000118298
ENSG00000276445
ENSG00000165300
ENSG00000250341
ENSG00000169891
ENSG00000185313
ENSG00000224071
ENSG00000140263
ENSG00000225246
ENSG00000251669
ENSG00000255384
ENSG00000259271
ENSG00000267557
ENSG00000051825
ENSG00000187678
ENSG00000258673
ENSG00000114738
ENSG00000142892
ENSG00000257890
ENSG00000164168
ENSG00000276972
ENSG00000140968
ENSG00000204435
ENSG00000134398
ENSG00000078237
ENSG00000234271
ENSG00000227117
ENSG00000186827
ENSG00000105894
ENSG00000225265
ENSG00000285848
ENSG00000135094
ENSG00000164197
ENSG00000131080
ENSG00000265527
ENSG00000151849
ENSG00000149548
ENSG00000136404
ENSG00000237940
ENSG00000237115
ENSG00000264829
ENSG00000174837
ENSG00000272733
ENSG00000274303
ENSG00000091181
ENSG00000278700
ENSG00000108797
ENSG00000116741
ENSG00000180185
ENSG00000229433
ENSG00000091732
ENSG00000197859
ENSG00000256448
ENSG00000100764
ENSG00000006634
ENSG00000127831
ENSG00000196378
ENSG00000133316
ENSG00000182621
ENSG00000183914
ENSG00000279443
ENSG00000144306
ENSG00000256571
ENSG00000285508
ENSG00000149257
ENSG00000048544
ENSG00000142408
ENSG00000233579
ENSG00000258875
ENSG00000114209
ENSG00000171992
ENSG00000253293
ENSG00000147586
ENSG00000176595
ENSG00000167747
ENSG00000005020
ENSG00000104112
ENSG00000255521
ENSG00000163788
ENSG00000143374
ENSG00000201372
ENSG00000083307
ENSG00000140948
ENSG00000144840
ENSG00000170837
ENSG00000269072
ENSG00000137077
ENSG00000168026
ENSG00000175967
ENSG00000225991
ENSG00000253372
ENSG00000285030
ENSG00000134490
ENSG00000138495
ENSG00000124541
ENSG00000163155
ENSG00000006016
ENSG00000169885
ENSG00000251186
ENSG00000243224
ENSG00000279700
ENSG00000285650
ENSG00000132698
ENSG00000171246
ENSG00000136247
ENSG00000270190
ENSG00000279019
ENSG00000085760
ENSG00000197056
ENSG00000108960
ENSG00000172171
ENSG00000204252
ENSG00000260391
ENSG00000197021
ENSG00000222095
ENSG00000205890
ENSG00000175792
ENSG00000232564
ENSG00000201839
ENSG00000112139
ENSG00000101213
ENSG00000155254
ENSG00000164035
ENSG00000141934
ENSG00000260735
ENSG00000243022
ENSG00000259488
ENSG00000249859
ENSG00000117528
ENSG00000158793
ENSG00000185345
ENSG00000167393
ENSG00000002587
ENSG00000132970
ENSG00000124172
ENSG00000228407
ENSG00000231848
ENSG00000257303
ENSG00000284624
ENSG00000101439
ENSG00000146263
ENSG00000260733
ENSG00000279089
ENSG00000183549
ENSG00000229027
ENSG00000267459
ENSG00000143921
ENSG00000092421
ENSG00000137752
ENSG00000173846
ENSG00000179152
ENSG00000259527
ENSG00000115137
ENSG00000118058
ENSG00000135069
ENSG00000183784
ENSG00000130349
ENSG00000115539
ENSG00000225498
ENSG00000136731
ENSG00000181544
ENSG00000276476
ENSG00000129744
ENSG00000231799
ENSG00000260727
ENSG00000178694
ENSG00000186918
ENSG00000240204
ENSG00000139173
ENSG00000163636
ENSG00000100276
ENSG00000108826
ENSG00000207406
ENSG00000254561
ENSG00000223703
ENSG00000129353
ENSG00000254542
ENSG00000160588
ENSG00000229051
ENSG00000172270
ENSG00000174059
ENSG00000226520
ENSG00000087502
ENSG00000243927
ENSG00000283674
ENSG00000174080
ENSG00000170860
ENSG00000083168
ENSG00000115170
ENSG00000139438
ENSG00000255062
ENSG00000279445
ENSG00000110876
ENSG00000166016
ENSG00000119321
ENSG00000196636
ENSG00000237263
ENSG00000112964
ENSG00000103226
ENSG00000124279
ENSG00000137269
ENSG00000142303
ENSG00000261312
ENSG00000111875
ENSG00000157020
ENSG00000255317
ENSG00000128908
ENSG00000215305
ENSG00000164104
ENSG00000278637
ENSG00000238045
ENSG00000121316
ENSG00000266237
ENSG00000115652
ENSG00000276702
ENSG00000225535
ENSG00000234604
ENSG00000101868
ENSG00000135324
ENSG00000180219
ENSG00000215009
ENSG00000139946
ENSG00000264895
ENSG00000272800
ENSG00000017483
ENSG00000233877
ENSG00000225166
ENSG00000082269
ENSG00000137040
ENSG00000145050
ENSG00000172590
ENSG00000173540
ENSG00000196155
ENSG00000170579
ENSG00000269887
ENSG00000155097
ENSG00000241316
ENSG00000103005
ENSG00000148842
ENSG00000278961
ENSG00000197594
ENSG00000264057
ENSG00000165192
ENSG00000272316
ENSG00000007402
ENSG00000080298
ENSG00000244879
ENSG00000205363
ENSG00000156687
ENSG00000233783
ENSG00000104888
ENSG00000268006
ENSG00000158042
ENSG00000138796
ENSG00000255449
ENSG00000158423
ENSG00000163297
ENSG00000175575
ENSG00000226648
ENSG00000147642
ENSG00000274956
